<?xml version="1.0" standalone="no"?>
<!DOCTYPE svg PUBLIC "-//W3C//DTD SVG 20010904//EN"
 "http://www.w3.org/TR/2001/REC-SVG-20010904/DTD/svg10.dtd">
<svg version="1.0" xmlns="http://www.w3.org/2000/svg"
 width="400.000000pt" height="400.000000pt" viewBox="0 0 400.000000 400.000000"
 preserveAspectRatio="xMidYMid meet">
<metadata>
Created by potrace 1.11, written by Peter Selinger 2001-2013
</metadata>
<g transform="translate(0.000000,400.000000) scale(0.100000,-0.100000)"
fill="#000000" stroke="none">
<path d="M354 3976 c-165 -53 -281 -173 -334 -343 -20 -64 -20 -93 -20 -1627
0 -1360 2 -1569 15 -1620 46 -176 163 -301 336 -360 l74 -25 1571 -1 c1546 0
1573 0 1637 20 93 29 154 66 222 135 62 63 108 143 131 230 11 41 14 342 14
1610 0 1359 -2 1568 -15 1619 -46 176 -169 307 -339 362 l-71 23 -1575 0
-1575 0 -71 -23z m3219 -172 c98 -23 179 -93 225 -194 14 -32 16 -185 18
-1595 1 -957 -2 -1571 -8 -1590 -30 -96 -88 -164 -177 -208 l-66 -32 -1550 -1
c-1646 -1 -1600 -2 -1674 44 -44 27 -107 97 -132 148 l-24 49 0 1570 0 1570
26 55 c14 30 38 70 53 88 32 37 103 82 156 98 24 7 517 11 1565 11 1286 1
1539 -1 1588 -13z"/>
<path d="M547 3535 c-41 -14 -71 -45 -87 -89 -10 -28 -2 -37 668 -707 l678
-678 62 62 c34 34 62 66 62 71 0 5 -303 311 -673 681 l-673 673 -37 -13z"/>
<path d="M2796 2799 c-696 -697 -698 -700 -680 -720 23 -26 1371 -1374 1407
-1408 l26 -23 -1 1391 c-1 1260 -2 1394 -17 1423 -9 18 -20 33 -26 34 -5 2
-324 -312 -709 -697z"/>
<path d="M1197 1202 c-383 -383 -697 -702 -697 -708 0 -6 15 -17 33 -26 28
-14 188 -15 1425 -16 765 0 1392 2 1392 5 0 9 -1437 1443 -1446 1443 -5 0
-323 -314 -707 -698z"/>
</g>
</svg>
